AirBNB Data Analysis
…
Before committing and pushing, go to github desktop after you have the data files. Where it lists each file with a checkbox, right click the data files listings.csv,reviews.csv,listings.csv.gz and click:

ignore all .csv files(add to .gitignore), then

ignore all .gz files(add to .gitignore).

If the data files are not removed from the list, right click them again and click "Ignore File(add to .gitignore). This will make it so you dont submit large data to the cloud. Github will not accept these large files(even the compressed ones) because of the size of our data.

listings <- read.csv('listings_NYC.csv');
reviews <- read.csv('reviews_NYC.csv');

Make some graphs!

## # A tibble: 37,012 x 74
##       id listing_url scrape_id last_scraped name  description neighborhood_ov~
##    <int> <chr>           <dbl> <chr>        <chr> <chr>       <chr>           
##  1  2595 https://ww~   2.02e13 2021-02-05   Skyl~ "Beautiful~ "Centrally loca~
##  2  3831 https://ww~   2.02e13 2021-02-05   Whol~ "Enjoy 500~ "Just the right~
##  3  5121 https://ww~   2.02e13 2021-02-05   Blis~ "<b>The sp~ ""              
##  4  5178 https://ww~   2.02e13 2021-02-05   Larg~ "Please do~ "Theater distri~
##  5  5203 https://ww~   2.02e13 2021-02-06   Cozy~ "Our best ~ "Our neighborho~
##  6  5803 https://ww~   2.02e13 2021-02-05   Love~ "Discounte~ "Neighborhood i~
##  7  6848 https://ww~   2.02e13 2021-02-05   Only~ "Comfortab~ ""              
##  8  6872 https://ww~   2.02e13 2021-02-06   Upto~ "A charmin~ "This sweet Har~
##  9  6990 https://ww~   2.02e13 2021-02-06   UES ~ "Beautiful~ "Location: Five~
## 10  7097 https://ww~   2.02e13 2021-02-05   Perf~ "Parents/g~ "Residential, v~
## # ... with 37,002 more rows, and 67 more variables: picture_url <chr>,
## #   host_id <int>, host_url <chr>, host_name <chr>, host_since <chr>,
## #   host_location <chr>, host_about <chr>, host_response_time <chr>,
## #   host_response_rate <chr>, host_acceptance_rate <chr>,
## #   host_is_superhost <chr>, host_thumbnail_url <chr>, host_picture_url <chr>,
## #   host_neighbourhood <chr>, host_listings_count <int>,
## #   host_total_listings_count <int>, host_verifications <chr>,
## #   host_has_profile_pic <chr>, host_identity_verified <chr>,
## #   neighbourhood <chr>, neighbourhood_cleansed <chr>,
…
